{
  "crossListedCCNs": [
    {
      "matterhornSeriesId": "2014D26259",
      "crossListedCCN": 24869,
      "deptName": "EL ENG",
      "catalogId": "C149"
    },
    {
      "matterhornSeriesId": "2014D26259",
      "crossListedCCN": 25280,
      "deptName": "EL ENG",
      "catalogId": "C249A"
    },
    {
      "matterhornSeriesId": "2014D26259",
      "crossListedCCN": 26694,
      "deptName": "COMPSCI",
      "catalogId": "C249A"
    },

    {
      "matterhornSeriesId": "2014D27240",
      "crossListedCCN": 27174,
      "deptName": "ENE,RES",
      "catalogId": "C100"
    },
    {
      "matterhornSeriesId": "2014D27240",
      "crossListedCCN": 77130,
      "deptName": "PUB POL",
      "catalogId": "C184"
    },
    {
      "matterhornSeriesId": "2014D27240",
      "crossListedCCN": 77286,
      "deptName": "PUB POL",
      "catalogId": "C284"
    }
  ]
}
